hiragana,romaji,katakana
あ,a,ア
あ,a,ァ
い,i,イ
ぃ,i,ィ
ぅ,u,ウ
う,u,ウ
ぇ,e,ェ
え,e,エ
ぉ,o,オ
お,o,オ
か,ka,カ
が,ga,ガ
き,ki,キ
ぎ,gi,ギ
く,ku,ク
ぐ,gu,グ
け,ke,ケ
げ,ge,ゲ
こ,ko,コ
ご,go,ゴ
さ,sa,サ
ざ,za,ザ
し,shi,シ
じ,ji,ジ
す,su,ス
ず,zu,ズ
せ,se,セ
ぜ,ze,ゼ
そ,so,ソ
ぞ,zo,ゾ
た,ta,タ
だ,da,ダ
ち,chi,チ
ぢ,di,ヂ
っ,tsu,ッ
つ,tsu,ツ
づ,du,ヅ
て,te,テ
で,de,デ
と,to,ト
ど,do,ド
な,na,ナ
に,ni,ニ
ぬ,nu,ヌ
ね,ne,ネ
の,no,ノ
は,ha,ハ
ば,ba,バ
ぱ,pa,パ
ひ,hi,ヒ
び,bi,ビ
ぴ,pi,ピ
ふ,fu,フ
ぶ,bu,ブ
ぷ,pu,プ
へ,he,ヘ
べ,be,ベ
ぺ,pe,ペ
ほ,ho,ホ
ぼ,bo,ボ
ぽ,po,ポ
ま,ma,マ
み,mi,ミ
む,mu,ム
め,me,メ
も,mo,モ
ゃ,ya,ャ
や,ya,ヤ
ゅ,yu,ュ
ゆ,yu,ユ
ょ,yo,ョ
よ,yo,ヨ
ら,ra,ラ
り,ri,リ
る,ru,ル
れ,re,レ
ろ,ro,ロ
ゎ,wa,ヮ
わ,wa,ワ
ゐ,wi,ヰ
ゑ,we,ヱ
を,wo,ヲ
ん,n,ン
きゃ,kya,キャ
きゅ,kyu,キュ
きょ,kyo,キョ
ぎゃ,gya,ギャ
ぎゅ,gyu,ギュ
ぎょ,gyo,ギョ
しゃ,sha,シャ
しゅ,shu,シュ
しょ,sho,ショ
じゃ,jya,ジャ
じゅ,jyu,ジュ
じょ,jyo,ジョ
ちゃ,cha,チャ
ちゅ,chu,チュ
ちょ,cho,チョ
ぢゃ,dya,ヂャ
ぢゅ,dyu,ヂュ
ぢょ,dyo,ヂョ
にゃ,nya,ニャ
にゅ,nyu,ニュ
にょ,nyo,ニョ
ひゃ,hya,ヒャ
ひゅ,hyu,ヒュ
ひょ,hyo,ヒョ
びゃ,bya,ビャ
びゅ,byu,ビュ
びょ,byo,ビョ
ぴゃ,pya,ピャ
ぴゅ,pyu,ピュ
ぴょ,pyo,ピョ
みゃ,mya,ミャ
みゅ,myu,ミュ
みょ,myo,ミョ
りゃ,rya,リャ
りゅ,ryu,リュ
りょ,ryo,リョ
ー,-,ー